<?xml version="1.0" encoding="utf-8"?>
<!-- Generator: Adobe Illustrator 16.0.0, SVG Export Plug-In . SVG Version: 6.00 Build 0)  -->
<!DOCTYPE svg PUBLIC "-//W3C//DTD SVG 1.1//EN" "http://www.w3.org/Graphics/SVG/1.1/DTD/svg11.dtd">
<svg version="1.1" id="Layer_1" xmlns="http://www.w3.org/2000/svg" xmlns:xlink="http://www.w3.org/1999/xlink" x="0px" y="0px"
	 width="25px" height="25px" viewBox="0 0 25 25" enable-background="new 0 0 25 25" xml:space="preserve">
<g>
	<path fill="#939598" d="M14.465,7.239h2.61V4h-2.61c-2.166,0-3.927,1.909-3.927,4.251v1.633H7.923v3.248h2.615V21h3.271v-7.865
		h3.27v-3.25h-3.27V8.22C13.809,7.659,14.154,7.239,14.465,7.239z"/>
</g>
</svg>
