<?xml version="1.0" encoding="utf-8"?>
<!-- Generator: Adobe Illustrator 16.0.0, SVG Export Plug-In . SVG Version: 6.00 Build 0)  -->
<!DOCTYPE svg PUBLIC "-//W3C//DTD SVG 1.1//EN" "http://www.w3.org/Graphics/SVG/1.1/DTD/svg11.dtd">
<svg version="1.1" id="Layer_1" xmlns="http://www.w3.org/2000/svg" xmlns:xlink="http://www.w3.org/1999/xlink" x="0px" y="0px"
	 width="25px" height="25px" viewBox="0 0 25 25" enable-background="new 0 0 25 25" xml:space="preserve">
<g>
	<rect x="5.246" y="9.39" fill="#939598" width="3.316" height="11.61"/>
	<path fill="#939598" d="M17.906,10.052C16.672,9.358,14.848,9.3,13.536,9.9V9.39H10.22V21h3.316v-7.426l1.366-0.657
		c0.337-0.161,1.07-0.146,1.382,0.028c0.233,0.132,0.569,0.674,0.569,1.006V21h3.316v-7.049
		C20.171,12.427,19.221,10.786,17.906,10.052z"/>
	<circle fill="#939598" cx="6.904" cy="6.073" r="2.073"/>
</g>
</svg>
